Instance: E031-09h.dat
Class: 2
30 --- number of customers (no depot)
9 --- number of vehicles
63 --- number of items
Capacity - height - width - length of vehicles
68 30 25 60
Node - x - y - demand
0 40.0000 40.0000 0
1 22.0000 22.0000 18
2 36.0000 26.0000 26
3 21.0000 45.0000 11
4 45.0000 35.0000 30
5 55.0000 20.0000 21
6 33.0000 34.0000 19
7 50.0000 50.0000 15
8 55.0000 45.0000 16
9 26.0000 59.0000 29
10 40.0000 66.0000 26
11 55.0000 65.0000 37
12 35.0000 51.0000 16
13 62.0000 35.0000 12
14 62.0000 57.0000 31
15 62.0000 24.0000 8
16 21.0000 36.0000 19
17 33.0000 44.0000 20
18 9.0000 56.0000 13
 19 62.0000 48.0000 15
20 66.0000 14.0000 22
21 44.0000 13.0000 28
22 26.0000 13.0000 12
23 11.0000 28.0000 6
24 7.0000 43.0000 27
25 17.0000 64.0000 14
26 41.0000 46.0000 18
27 55.0000 34.0000 17
28 35.0000 16.0000 29
29 52.0000 26.0000 13
30 43.0000 26.0000 22
Node - number of items - h - w - l - fragility for each item
0 0
1 2 16 14 29 0 9 10 25 1
2 3 14 13 21 0 9 10 19 0 15 14 22 1
3 3 10 10 30 0 13 11 15 0 6 13 24 1
4 2 16 6 34 0 18 13 31 1
5 1 10 12 23 1
6 1 13 11 33 0
7 3 15 9 25 0 8 12 32 0 8 11 22 0
8 2 13 13 20 0 12 12 21 0
9 3 10 11 32 0 10 13 16 0 6 6 24 0
10 1 11 10 16 0
11 1 18 15 24 0
12 3 13 7 34 0 10 14 19 0 12 5 35 0
13 3 13 12 20 0 11 11 23 0 9 8 17 0
14 1 18 7 13 1
15 1 9 8 26 0
16 2 10 10 19 0 8 9 14 0
17 1 10 11 24 0
18 3 15 15 14 0 14 7 29 0 13 5 21 0
19 3 16 10 31 0 12 13 21 0 17 9 13 1
20 2 15 7 36 0 6 9 24 0
21 2 9 11 16 0 16 8 15 1
22 2 11 6 32 0 18 10 13 1
23 3 11 12 19 0 7 13 23 0 16 8 29 1
24 3 15 12 27 0 11 10 35 0 15 11 15 1
25 1 7 6 19 0
26 3 17 6 18 0 11 8 12 0 9 12 16 1
27 3 9 12 19 0 18 13 24 1 12 10 35 1
28 1 13 15 12 0
29 3 10 14 25 0 11 11 25 0 17 9 14 0
30 1 12 15 15 0
